{
    "authors": "Mohamed Hegazy <https://github.com/mhegazy>",
    "libraryDependencies": [],
    "moduleDependencies": [],
    "libraryMajorVersion": 1,
    "libraryMinorVersion": 0,
    "typeScriptVersion": "2.0",
    "libraryName": "is-finite",
    "typingsPackageName": "is-finite",
    "projectName": "https://github.com/sindresorhus/is-finite#readme",
    "sourceRepoURL": "https://www.github.com/DefinitelyTyped/DefinitelyTyped",
    "sourceBranch": "master",
    "globals": [],
    "declaredModules": [
        "is-finite"
    ],
    "files": [
        "index.d.ts"
    ],
    "hasPackageJson": false,
    "contentHash": "bec40aa5d27bb058d5e4a6e159cb0ab3d5e6b97fba1654060a27e56f7f1033da"
}